929986 445943 525
288693 461198 449
227767 997690 525
253643 209347 443
342030 31562 443
143773 61340 375
427133 272239 449
506463 386848 449
780126 843842 525
529201 843660 525
43210 840314 525
811149 550798 509
228833 321825 443
762333 83106 509
174993 284003 443
410552 721684 509
34753 626044 470
505302 849173 525
708078 9260 509
60329 959195 525
708212 225250 509
922258 170433 525
155372 612531 470
818990 153112 509
407352 252418 441
383535 738223 509
307718 957755 525
387253 375418 423
372306 318481 441
405909 916914 525
639105 191751 509
581972 405877 470
100915 826319 509
760090 211362 509
197725 834211 509
81350 913475 525
40954 127477 354
461493 335244 449
587373 500270 470
575258 883829 525
183815 848242 525
483887 349305 449
411954 939087 525
828222 464697 509
237963 882707 525
410834 162575 449
449985 333125 449
752594 5641 509
921799 325379 525
913268 22992 525
764094 822832 468
937571 724326 525
183647 732606 509
418119 870201 525
909387 210340 525
101810 40706 351
140848 832672 509
613645 957206 525
335003 490901 449
483374 451434 444
774274 108145 509
819498 170655 509
1977 805051 509
267632 788636 509
155505 908064 525
647801 488707 509
51045 39279 314
166960 808710 509
701583 203659 509
783250 427194 509
591791 95083 470
269965 559443 470
906248 540944 525
719520 88481 509
551464 357021 470
54667 240652 443
368818 141258 443
616838 955694 525
917203 878104 476
402747 855521 525
4919 184742 383
42600 9724 324
218327 997049 525
5475 903203 525
117058 844915 525
994520 964568 458
831800 839286 525
926603 418535 525
786567 914961 525
890638 457346 525
479889 97678 449
603707 667774 509
911187 511342 525
648587 956933 525
869504 628504 525
686478 243721 509
143000 959413 525
436989 632490 509
875533 791494 525
63884 468751 449
267654 99847 443
694234 613824 509
745350 968361 525
178338 492284 449
502822 471882 426
939952 752620 525
671227 146411 509
217637 386609 443
737070 923540 525
346701 423491 449
920417 62433 525
305351 533118 470
263788 151810 443
68168 159171 383
372352 310950 441
188438 435892 449
738276 743009 424
546647 515483 439
723632 816652 468
318290 297315 384
20545 98588 351
739991 902118 525
773609 306895 509
608212 86640 470
728190 320827 509
209826 834315 509
630776 23233 509
570878 192817 470
522647 264814 470
89391 571684 470
660595 381227 509
687955 758557 504
500989 777922 509
75044 436300 449
326202 75139 443
567324 88062 470
563627 138631 470
656028 500613 509
124268 73051 354
376078 976534 525
985571 574885 525
144746 308571 443
428736 990998 525
44519 190499 383
316200 634737 509
541280 68216 470
987261 8254 525
967690 166566 525
958384 812472 525
591721 11370 470
252143 380833 441
703562 665804 442
16873 397568 443
826320 869885 525
953184 702522 525
967701 887591 507
916300 621878 525
930694 37101 525
747491 525945 509
358486 256815 441
552263 943373 525
561434 899066 525
557664 260868 470
369688 70827 443
776541 431121 509
24089 689119 509
696190 795887 504
996247 689039 525
648188 610056 509
185936 141433 383
673050 519190 509
15492 212530 383
545162 751498 509
266638 313317 407
324992 98145 443
331757 960586 525
631012 945773 525
46986 431748 449
994268 283893 525
623396 27592 470
596873 782231 509
321287 305120 384
121192 375902 443
982409 398750 525
568280 479617 470
847002 85110 525
138400 381412 443
549313 788256 509
928934 616075 525
549006 360613 470
542453 617414 452
295621 525060 470
15839 481286 449
292703 820234 509
986229 753981 525
820020 773014 468
203043 527152 470
237058 521183 470
199631 280732 443
102044 939579 525
245996 240988 337
541143 934932 525
83362 280053 443
122666 982227 525
978593 449232 525
5399 647889 509
99077 963874 525
777798 147989 509
406195 149394 443
290121 136379 443
684397 65894 509
54189 922180 525
486024 596491 470
768082 801496 468
881607 782914 525
324176 684200 509
939385 694895 525
381870 928828 525
449679 953008 525
104850 19448 351
474997 986842 525
366768 29821 443
764317 768855 468
563619 776082 509
566193 648446 509
280418 199199 443
315112 25411 443
333303 400740 441
993748 583574 525
633062 619637 509
130898 348858 443
313346 952264 525
749907 535268 509
520077 680588 509
395155 50371 443
866084 303044 525
381886 991493 525
596356 39899 470
263700 357558 441
648123 321094 509
987097 515675 525
777583 473139 509
476708 78081 449
177625 639161 509
626583 333692 509
642531 396286 509
848813 854329 419
675515 321506 509
523430 167329 470
