318844 834419 509
269698 753205 509
621541 965652 525
574859 826369 509
647738 791923 504
201186 695851 509
92345 108937 354
468371 741984 509
480497 769188 509
934463 647682 525
465050 619111 470
227643 204072 386
433458 904501 525
782545 790895 406
902416 87001 525
198904 568175 470
265314 207417 443
71541 468233 449
31207 100612 351
18489 823353 509
924270 878878 476
901760 417412 525
313497 750479 509
447159 918920 525
688703 164808 509
836223 709759 468
138575 395954 443
2478 829605 509
846899 471438 525
490903 750878 509
158769 692509 509
105110 776402 509
651365 837992 525
477540 482858 413
88035 808215 509
546357 964197 525
724036 408406 509
349178 472386 449
736479 724118 424
353021 198238 443
940160 38503 525
991749 743731 525
985116 745076 525
462864 644508 509
744280 600633 509
542036 974217 525
151068 709443 509
751503 463201 509
287864 846159 525
624996 463743 470
615967 310121 470
516757 473712 470
895669 331260 525
624752 127687 470
62255 626148 470
893005 906962 445
857250 911697 476
651392 411884 509
187992 393094 443
136264 825829 509
820633 989779 525
456483 622599 470
264167 818472 509
477250 450371 444
847533 189068 525
362509 219542 443
982243 989291 427
97427 632722 509
359797 333774 441
392210 679517 509
170908 466508 449
653177 692620 442
925802 209375 525
252751 526885 470
892825 877121 445
991465 554285 525
626345 843340 525
707060 807476 468
191071 435706 449
223500 760003 509
887195 366026 525
125862 717575 509
389892 113871 443
549990 539517 452
680420 877960 525
42936 848814 525
249922 606567 470
171356 539453 470
996643 881148 507
856422 71377 525
90461 797497 509
850455 56159 525
681607 566777 509
838252 622161 525
159047 876137 525
524829 793075 509
256372 270714 407
975481 446083 525
517595 988311 525
526034 913259 525
894297 176442 525
219412 255991 443
211562 310283 443
278051 785670 509
283086 269584 407
561162 290704 470
832621 885707 525
234585 486857 449
249399 848713 525
251346 126113 443
933831 847598 476
239287 185832 443
938091 870304 476
972237 384994 525
776449 419396 509
58454 520986 470
964519 557993 525
583999 263956 470
763198 661755 504
709797 309609 509
383194 969811 525
360462 101379 443
462304 540252 470
460397 23057 449
135192 386989 443
280032 243582 407
512081 117410 470
913257 258966 525
532430 207199 470
393207 844452 525
166975 526196 470
754911 60212 509
154172 82505 375
593226 610487 403
891971 929042 476
487837 303960 449
154860 130224 375
115273 406766 443
575439 650055 509
542558 452829 470
69487 539302 470
648811 274056 509
492522 266084 449
148495 835777 509
608268 132646 470
870163 509437 525
996688 80548 525
646937 188367 509
887416 728254 525
381004 267250 441
862683 383177 525
193334 431268 449
348485 991547 525
968895 248099 525
943482 443450 525
599205 343430 470
821031 713710 468
280271 24359 443
499360 695557 509
674184 27353 509
723109 331321 509
319010 262281 407
428840 822673 509
651895 356415 509
632828 942108 525
232 194217 383
973256 438467 525
233653 951408 525
826905 508031 509
561777 413531 470
854235 72872 525
378939 899280 525
157179 732628 509
258828 140766 443
79237 812854 509
364227 45457 443
696224 731894 504
521901 806488 509
541128 962112 525
503127 731443 509
455355 329370 449
839183 222296 525
198074 63719 383
261730 537744 470
593268 517454 452
402361 265304 441
258417 767175 509
587135 863474 525
918965 716913 525
316984 680036 509
609174 994786 525
657767 518376 509
973283 679583 525
392226 393532 361
586750 264676 470
651226 911971 525
11041 929192 525
520896 731212 509
219608 358530 443
186698 269582 443
390324 578674 470
385870 791203 509
313264 538669 470
498181 787987 509
489856 586399 470
202708 751043 509
497347 1257 449
514439 520922 439
720068 200080 509
429069 87914 449
83181 597057 470
547254 262069 470
207691 200945 373
619992 421501 470
150384 318083 443
130049 606084 470
650800 635042 416
586631 952091 525
342947 66395 443
335460 536441 470
117715 487274 449
135524 886826 525
855615 629321 525
627033 27763 509
603740 542790 452
933093 343180 525
572872 672968 509
411861 731817 509
482909 27873 449
620158 391364 470
825950 656542 504
215370 584758 470
608262 495924 470
550724 784901 509
47764 917210 525
593411 382195 470
992047 629460 525
572076 10479 470
825084 442045 509
46243 599279 470
352801 566860 470
176986 677566 509
582856 375603 470
223611 134107 386
258771 886635 525
579677 182201 470
290972 794623 509
256243 794432 509
148628 868255 525
679985 813628 504
