42 72 113
39 36 35
58 86 116
69 11 113
11 8 20
96 98 119
79 15 116
96 2 116
76 16 116
85 71 116
999387 999813 290
999188 999329 396
999116 999067 277
999880 999822 259
999465 999876 290
999589 999654 290
999837 999351 290
999898 999088 396
999839 999963 259
999611 999291 396
999891 999060 396
999278 999717 396
999625 999102 396
999999 999654 290
999068 999534 396
999863 999417 290
999021 999398 396
999629 999353 290
999990 999970 259
999507 999612 290
999129 999743 396
999213 999663 396
999103 999520 396
999887 999956 259
999818 999486 290
999394 999363 259
999364 999809 290
999971 999709 259
999278 999739 396
999764 999046 396
999698 999790 259
999150 999455 396
999001 999606 396
999684 999476 290
999173 999266 251
999169 999482 396
999357 999780 290
999511 999571 290
999194 999225 251
999953 999675 259
71182 65960 312
67997 44766 340
50636 23075 324
76609 15470 340
61452 30532 340
67812 65389 312
68618 61729 330
44997 28855 324
46973 65668 340
47343 60763 340
60701 48264 340
51604 32871 324
58208 43977 340
66699 64611 268
65369 21408 340
74149 35707 340
67830 42170 340
52528 61682 335
65511 18791 340
75447 49918 340
76808 25091 340
58254 51518 340
59343 43065 340
55309 52624 322
53174 31201 340
60954 64212 335
75821 16668 340
51290 49183 296
73845 45915 340
46736 27261 324
53214 54548 322
55170 29497 340
75801 32837 340
63956 65864 299
52987 15489 340
66596 32355 340
57952 15957 340
66746 57024 335
46397 64822 340
45811 46245 252
71077 27595 340
54117 58452 322
64788 19366 340
46942 55977 340
68183 61473 330
65057 52761 335
57684 62998 335
59946 33954 340
70094 61866 330
70654 38205 340
60636 156889 383
30134 198428 383
30116 153584 375
82694 100662 341
39396 142529 354
43399 125397 354
52522 112524 354
8741 138174 354
3327 175585 383
40229 172455 383
13882 189692 383
14811 131504 354
1679 136731 354
62752 112550 354
73606 149380 375
88451 123493 354
69613 151927 375
35659 147148 375
89151 106620 354
1437 123158 354
91935 133740 354
55917 130357 354
1366 142239 354
55744 112835 354
30266 173245 383
86546 134448 354
33574 151665 375
95458 179285 383
84190 186230 383
51644 103257 351
94629 128388 354
28631 194139 383
69138 167238 383
41498 119770 354
96749 155976 375
74740 175724 383
65036 123140 354
11086 156275 383
10016 199131 383
56548 172746 383
6595 109182 354
3402 130661 354
87931 174907 383
23288 146420 375
58979 161355 383
35293 104623 351
80185 104003 341
9039 186162 383
74782 142552 354
45572 113803 354
6534 662518 509
7157 720067 509
96996 757085 509
90657 437631 449
94426 499775 449
21689 119883 354
78590 422286 449
79113 364777 443
14905 10864 276
87159 7851 351
5965 608655 470
62827 922397 525
673 889579 525
94610 867303 525
92604 923183 525
66747 990288 525
30809 530882 470
44079 998316 525
12993 569110 470
85020 3700 351
2623 41263 324
71377 269323 443
48961 743943 509
70521 671559 509
34529 515694 470
74180 642128 509
59912 910562 525
33503 512247 470
47989 386888 443
39253 31003 324
25643 12107 282
21043 679698 509
32520 761244 509
64581 673551 509
38939 826170 509
9152 968892 525
57731 278530 443
68091 864965 525
62026 26993 340
72053 383995 443
98460 764718 509
61048 91401 351
45900 18292 324
36091 636166 509
61698 262774 443
62002 992876 525
97313 31336 351
42275 466482 449
61085 74012 330
59441 551658 470
210656 793334 509
31235 658493 509
902581 386038 525
241565 559068 470
662407 872530 525
24644 307383 443
938727 684601 525
591886 976611 525
936157 165511 525
966579 980243 458
201652 29494 383
349259 737476 509
113955 782386 509
697347 124886 509
156023 59097 375
638229 652121 416
958956 478016 525
846905 637247 525
764673 558291 509
793080 76813 509
944102 818531 525
191218 800399 509
956637 947975 414
286988 240026 407
308914 813491 509
478269 90211 449
714877 345008 509
396074 426058 449
390660 845378 525
881336 166192 525
819577 826589 450
5361 750861 509
579309 13792 470
963756 727875 525
797663 993530 525
152917 869883 525
420273 936060 525
633579 681571 442
685147 376282 509
126487 698691 509
416380 882605 525
65361 386360 443
997318 739991 525
680654 234318 509
811775 879596 525
59500 660907 509
662201 224834 509
961241 617466 525
525819 132456 470
503034 634767 509
