1 10 20
100 200 125
201 210 89
900 1000 174
3826 9161 262
5472 9078 262
1820 6050 238
5400 6510 262
4373 9526 262
2288 3560 217
4097 7490 262
674 2641 209
4598 8373 262
2738 7740 262
8807 5353 262
7671 3783 262
6804 2555 262
5053 3633 238
5936 1345 238
3904 406 238
3081 2111 217
4000 5597 236
9431 5417 262
3174 5521 238
9660 8841 260
2776 5463 238
7346 6783 257
6340 283 262
2102 7480 262
217 2931 217
1221 2722 209
3537 4780 238
1173 9837 262
6649 4452 262
7354 3988 262
8495 843 262
8436 9008 247
6332 8844 257
2019 2268 183
365 5636 238
7023 7841 239
3866 8257 262
8053 7024 252
8299 5674 262
1196 9789 262
7508 3238 262
8053 1869 262
1510 5651 238
3080 6715 262
7327 3729 262
7067 4510 262
1261 4165 238
605 8464 262
2336 9495 262
9159 1063 262
7246 949 262
833 1571 182
9421 9379 154
8511 5514 262
9927 9761 242
9958 5770 262
9748 7042 260
6304 3159 262
1996 5229 238
8547 1366 262
2246 1042 183
4289 5619 236
677 6608 262
9946 2632 262
9288 5679 262
1769 4549 238
4208 5554 215
3280 1470 217
9099 932 262
5226 2433 238
1805 8869 262
3805 4108 189
6972 9674 260
4685 2306 238
8178 1811 262
7618 6634 257
3051 8963 262
8428 8575 203
5846 1337 238
2555 8873 262
9648 2672 262
4151 5701 236
28 2049 182
5115 8250 262
190 4407 238
740 4845 238
1037 875 174
6221 9356 260
3876 3703 238
8152 168 262
773 551 171
8811 8115 234
7631 3014 262
8195 9214 247
3012 7649 262
9750 8424 260
7495 3643 262
4692 7160 262
6466 3436 262
6152 2458 238
5555 8879 262
1067 6451 262
1350 1591 172
6494 8174 257
6600 4216 262
4620 8622 262
4722 9756 262
5526 273 238
8733 8561 203
2164 2235 183
5256 1144 238
7895 1651 262
4683 8942 262
1130 5935 238
9976 3153 262
3254 6490 262
1893 4013 238
4616 5321 210
8759 7188 252
3843 3886 145
4651 1000 238
5845 5076 236
8746 7579 252
3988 3808 189
4909 4948 210
2797 6516 262
9165 9270 260
3243 4948 238
1429 4303 238
7884 221 262
9054 8033 247
9020 6166 262
6339 3113 262
1327 5091 238
7899 1174 262
5375 434 238
9491 8898 260
8494 1409 262
4773 5745 236
3438 1785 217
8886 2883 262
6622 4014 262
7252 698 262
2040 6467 262
4815 7372 262
163 6472 262
8962 7180 252
2944 6735 262
4771 9218 262
3382 6145 238
9490 8802 260
8665 4872 262
1660 9848 262
5234 4333 215
555 8014 262
7376 3658 262
8322 5842 262
6108 3659 238
8642 4956 262
8944 5760 262
166 3731 238
1601 7567 262
9914 1902 262
5460 3837 215
2246 6302 262
5274 6964 262
9677 3157 262
8153 3916 262
5182 5684 236
3524 1666 217
86 5001 238
7248 4906 262
7318 4543 262
6884 5669 262
2558 8904 262
8417 8349 234
9035 6991 252
4168 2699 238
8622 985 262
5696 9777 262
5700 6908 262
2094 129 182
7191 6253 257
5302 5886 236
1277 8899 262
2339 5114 238
6667 3130 262
9517 8937 260
6393 182 262
395 4407 238
4361 223 238
1940 792 182
787 1175 182
6629 2806 262
4630 9151 262
3204 5777 238
5780 3566 238
9583 833 262
6211 2176 262
4828 6694 262
3177 504 217
8127 7016 252
9778 3488 262
1377 277 182
5180 4257 215
9129 1442 262
2396 8552 262
6390 5898 262
9173 687 262
2619 8881 262
5135 3867 215
5304 4586 210
793 5806 238
4204 4600 215
6667 7733 257
2180 5155 238
2606 3826 238
5470 3038 238
6037 1599 238
8077 9802 260
786 3857 238
7454 1638 262
529 7277 262
766 144 171
6137 2591 238
5755 8751 262
2890 1826 209
3862 9976 262
1799 5178 238
835 1474 182
2250 5083 238
973 9852 262
9556 412 262
6486 8465 257
6229 9623 260
7377 6231 257
6134 4816 236
8106 7569 252
6777 7116 257
3500 5882 238
6543 2039 262
6929 7722 257
8779 8747 216
8319 1775 262
4862 9064 262
105 1151 179
398 139 144
3194 971 217
2375 3728 238
